<html>
 
<head></head>
 
<body>
    <p>Hi,</p>
    <p>As you've requested for a password change, your One Time Generated Password is : ${otp}</p>
    <p>Please do not share it with anyone.</p>
    <br/>
    <p>Thanks</p>
    <p>Sports Score Team</p>
</body>
 
</html>